{
  "billerId": "URADTS_PAY",
  "billerName": "URA DTS",
  "billerParamName": "UTIL_BILLER_CODE",
  "accountRequestParamName": "FT_BANK_FAL",
  "accountServiceName": "GENERIC_BILLPAYMENT_AC",
  "walletServiceName": "GENERIC_BILLPAYMENT_AC",
  "needPresentment": true,
  "pages": [
    {
      "pageNo": 1,
      "layouts": [
        {
          "layoutName": "Presentment Layout",
          "layoutColumns": 1,
          "elements": [
            {
              "elementId": "AccountNumber",
              "elementType": "INPUT_TEXTFIELD",
              "subType": null,
              "inputType": "ALPHA_NUMERIC",
              "variableId": null,
              "fontName": "Axiforma-Medium",
              "rpKey": true,
              "fontSize": 15,
              "elementDisplayName": {
                "sw": "Nambari ya akaunti",
                "en": "ACCOUNT NUMBER"
              },
              "elementPlaceHolder": {
                "sw": "Nambari ya akaunti",
                "en": "ACCOUNT NUMBER"
              },
              "defaultValue": null,
              "elementValues": null,
              "doesSubmit": true,
			  "primaryData" :  true,
			  "primaryKeyType" :  "AccountNumber",
              "displayOnCompletion" : true,
              "mandatory": true,
              "minCharacters": 1,
              "maxCharacters": 16,
              "regexRequired": false,
              "regex": null,
              "errorMessage": {
                "sw": "Invalid Account Number",
                "en": "Invalid Account Number"
              },
              "popupRequried": false,
              "popupLayout": null,
              "variable": false
            }
          ]
        }
      ],
      "showRecentPaymentsList": true,
      "showProceedToPaymentOption": false
    },
    {
      "pageNo": 2,
      "layouts": [
        {
          "layoutName": null,
          "layoutColumns": 1,
          "elements": [
            {
              "elementId": "billRefName",
              "elementType": "HIDDEN_VARIABLE",
              "variableId": "queryInfo^taxpayerName",
              "fontName": "Axiforma-SemiBold",
              "doesSubmit": true,
              "mandatory": true,
			  "primaryData" :  true,
			  "primaryKeyType" :  null,
              "variable": true
            },
            {
              "elementId": "billRefName",
              "elementType": "READ_ONLY_LABEL",
              "subType": null,
              "inputType": null,
              "variable": true,
              "variableId": "queryInfo^taxpayerName",
              "fontName": "Axiforma-SemiBold",
              "fontSize": 14,
              "elementDisplayName": {
                "sw": "TAX PAYER NAME",
                "en": "TAX PAYER NAME"
              },
              "elementPlaceHolder": null,
              "defaultValue": null,
              "elementValues": null,
              "doesSubmit": false,
              "mandatory": false,
              "minCharacters": 0,
              "maxCharacters": 0,
              "regexRequired": false,
              "displayOnCompletion" : true,
              "regex": null,
              "errorMessage": null,
              "popupRequried": false,
              "popupLayout": null
            }
          ]
        },
        {
          "layoutName": null,
          "layoutColumns": 2,
          "elements": [
            {
              "elementId": "currencyCode",
              "elementType": "READ_ONLY_LABEL",
              "subType": null,
              "inputType": null,
              "variable": true,
              "variableId": "queryInfo^currencyCode",
              "fontName": "Axiforma-SemiBold",
              "fontSize": 14,
              "elementDisplayName": {
                "sw": "CURRENCY",
                "en": "Currency"
              },
              "elementPlaceHolder": null,
              "defaultValue": null,
              "elementValues": null,
              "doesSubmit": false,
              "mandatory": false,
              "minCharacters": 0,
              "maxCharacters": 0,
              "regexRequired": false,
              "regex": null,
              "errorMessage": null,
              "popupRequried": false,
              "popupLayout": null
            },
            {
              "elementId": "amount",
              "elementType": "READ_ONLY_LABEL",
              "subType": null,
              "inputType": null,
              "variable": true,
              "variableId": "queryInfo^amount",
              "fontName": "Axiforma-SemiBold",
              "fontSize": 14,
              "elementDisplayName": {
                "sw": "KIASI",
                "en": "Amount"
              },
              "elementPlaceHolder": null,
              "defaultValue": null,
              "elementValues": null,
              "doesSubmit": false,
              "mandatory": false,
              "minCharacters": 0,
              "maxCharacters": 0,
              "regexRequired": false,
              "regex": null,
              "errorMessage": null,
              "popupRequried": false,
              "popupLayout": null
            },
            {
              "elementId": "taxHeadCode",
              "elementType": "READ_ONLY_LABEL",
              "subType": null,
              "inputType": null,
              "variable": true,
              "variableId": "queryInfo^taxHeadCode",
              "fontName": "Axiforma-SemiBold",
              "fontSize": 14,
              "elementDisplayName": {
                "sw": "TAX HEAD CODE",
                "en": "Tax Head Code"
              },
              "elementPlaceHolder": null,
              "defaultValue": null,
              "elementValues": null,
              "doesSubmit": false,
              "mandatory": false,
              "minCharacters": 0,
              "maxCharacters": 0,
              "regexRequired": false,
              "regex": null,
              "errorMessage": null,
              "popupRequried": false,
              "popupLayout": null
            },
            {
              "elementId": "statusDesc",
              "elementType": "READ_ONLY_LABEL",
              "subType": null,
              "inputType": null,
              "variable": true,
              "variableId": "queryInfo^statusDesc",
              "fontName": "Axiforma-SemiBold",
              "fontSize": 14,
              "elementDisplayName": {
                "sw": "STATUS",
                "en": "Status"
              },
              "elementPlaceHolder": null,
              "defaultValue": null,
              "elementValues": null,
              "doesSubmit": false,
              "mandatory": false,
              "minCharacters": 0,
              "maxCharacters": 0,
              "regexRequired": false,
              "regex": null,
              "errorMessage": null,
              "popupRequried": false,
              "popupLayout": null
            }
          ]
        },
        {
          "layoutName": null,
          "layoutColumns": 1,
          "elements": [
            {
              "elementId": "transactionAmount",
              "elementType": "AMOUNT_TEXTFIELD",
              "subType": null,
              "inputType": "CONTACT",
              "variable": true,
              "variableId": "queryInfo^amount",
              "fontName": "Rubik-Medium",
              "fontSize": 30,
              "primaryData" :  true,
              "primaryKeyType" :  null,
              "elementDisplayName": {
                "sw": "KIASI",
                "en": "Amount"
              },
              "elementPlaceHolder": {
                "sw": "KIASI",
                "en": "Amount"
              },
              "defaultValue": null,
              "elementValues": null,
              "doesSubmit": true,
              "mandatory": true,
              "noneditable": true,
              "minCharacters": -1,
              "maxCharacters": -1,
              "regexRequired": false,
              "regex": "^\\d{1,12}$",
              "errorMessage": {
                "sw": "Invalid Amount, Please choose an amount greater than 0",
                "en": "Invalid Amount, Please choose an amount greater than 0"
              },
              "popupRequried": false,
              "popupLayout": null
            },
            {
              "elementId": "transactionNarration",
              "elementType": "INPUT_TEXTFIELD",
              "subType": null,
              "inputType": "ALPHA_NUMERIC",
              "variableId": null,
              "fontName": "Axiforma-Medium",
              "rpKey": false,
              "fontSize": 15,
              "primaryData" :  true,
              "primaryKeyType" :  null,
              "elementDisplayName": {
                "sw": "Transaction Narration",
                "en": "Transaction Narration"
              },
              "elementPlaceHolder": {
                "sw": "Transaction Narration",
                "en": "Transaction Narration"
              },
              "defaultValue": null,
              "elementValues": null,
              "doesSubmit": true,
              "mandatory": true,
              "minCharacters": 1,
              "maxCharacters": 40,
              "regexRequired": false,
              "regex": null,
              "errorMessage": {
                "sw": "Tafadhali weka Simulizi ya Muamala",
                "en": "Please enter Transaction Narration"
              },
              "popupRequried": false,
              "popupLayout": null,
              "variable": false
            }
          ]
        }
      ],
      "showRecentPaymentsList": false,
      "showProceedToPaymentOption": true
    }
  ]
}
