{
  "billerId": "NWSC_PAY",
  "billerName": "NWSC",
  "billerParamName": "UTIL_BILLER_CODE",
  "accountRequestParamName": "FT_BANK_FAL",
  "accountServiceName": "GENERIC_BILLPAYMENT_AC",
  "walletServiceName": "GENERIC_BILLPAYMENT_AC",
  "needPresentment": true,
  "pages": [
    {
      "pageNo": 1,
      "layouts": [
        {
          "layoutName": "Presentment Layout",
          "layoutColumns": 1,
          "elements": [
            {
              "elementId": "AccountNumber",
              "elementType": "INPUT_TEXTFIELD",
              "subType": null,
              "inputType": "ALPHA_NUMERIC",
              "variableId": null,
              "fontName": "Axiforma-Medium",
              "rpKey": true,
              "fontSize": 15,
              "elementDisplayName": {
                "sw": "Nambari ya akaunti",
                "en": "METER NUMBER"
              },
              "elementPlaceHolder": {
                "sw": "Nambari ya akaunti",
                "en": "METER NUMBER"
              },
              "defaultValue": null,
              "elementValues": null,
              "doesSubmit": true,
              "displayOnCompletion" : true,
			  "primaryData" : true,
			  "primaryKeyType" : "AccountNumber",
              "mandatory": true,
              "minCharacters": 1,
              "maxCharacters": 16,
              "regexRequired": false,
              "regex": null,
              "errorMessage": {
                "sw": "Invalid Account Number",
                "en": "Invalid Account Number"
              },
              "popupRequried": false,
              "popupLayout": null,
              "variable": false
            },
            {
              "elementId": "area",
              "elementType": "GENERIC_DROPDOWN",
              "variableId": null,
              "fontName": "Axiforma-Medium",
              "fontSize": 15,
              "elementDisplayName": {
                "sw": "ENEO",
                "en": "AREA"
              },
              "elementPlaceHolder": {
                "sw": "ENEO",
                "en": "AREA"
              },
              "defaultValue": null,
              "elementValues": [
                "Kampala^Kampala",
                "Jinja^Jinja",
                "Entebbe^Entebbe",
                "Iganga^Iganga",
                "Lugazi^Lugazi",
                "Mukono^Mukono",
                "Kajjansi^Kajjansi",
                "Kawuku^Kawuku",
                "Others^Others"
              ],
              "doesSubmit": true,
              "mandatory": true,
			  "primaryData" :  false,
			  "primaryKeyType" :  null,
              "minCharacters": -1,
              "maxCharacters": -1,
              "regexRequired": false,
              "regex": null,
              "errorMessage": {
                "sw": "Tafadhali chagua eneo sahihi",
                "en": "Please select a valid area"
              },
              "popupRequried": false,
              "popupLayout": null,
              "variable": false
            }
          ]
        }
      ],
      "showRecentPaymentsList": true,
      "showProceedToPaymentOption": false
    },
    {
      "pageNo": 2,
      "layouts": [
        {
          "layoutName": null,
          "layoutColumns": 1,
          "elements": [
            {
              "elementId": "billRefName",
              "elementType": "HIDDEN_VARIABLE",
              "variableId": "queryInfo^custName",
              "fontName": "Axiforma-SemiBold",
			  "primaryData" :  true,
			  "primaryKeyType" :  null,
              "doesSubmit": true,
              "mandatory": true,
              "variable": true
            },
            {
              "elementId": "billRefName",
              "elementType": "READ_ONLY_LABEL",
              "subType": null,
              "inputType": null,
              "variableId": "queryInfo^custName",
              "fontName": "Axiforma-SemiBold",
              "fontSize": 14,
              "elementDisplayName": {
                "sw": "CUSTOMER NAME",
                "en": "CUSTOMER NAME"
              },
              "elementPlaceHolder": null,
              "defaultValue": null,
              "elementValues": null,
              "doesSubmit": false,
              "mandatory": false,
              "minCharacters": 0,
              "maxCharacters": 0,
              "regexRequired": false,
              "displayOnCompletion" : true,
              "regex": null,
              "errorMessage": null,
              "popupRequried": false,
              "popupLayout": null,
              "variable": true
            }
          ]
        },
        {
          "layoutName": null,
          "layoutColumns": 2,
          "elements": [
            {
              "elementId": "propertyRef",
              "elementType": "READ_ONLY_LABEL",
              "subType": null,
              "inputType": null,
              "variable": true,
              "variableId": "queryInfo^propertyRef",
              "fontName": "Axiforma-SemiBold",
              "fontSize": 14,
              "elementDisplayName": {
                "sw": "Property Reference",
                "en": "Property Reference"
              },
              "elementPlaceHolder": null,
              "defaultValue": null,
              "elementValues": null,
              "doesSubmit": false,
              "mandatory": false,
              "minCharacters": 0,
              "maxCharacters": 0,
              "regexRequired": false,
              "regex": null,
              "errorMessage": null,
              "popupRequried": false,
              "popupLayout": null
            },
            {
              "elementId": "custRef",
              "elementType": "READ_ONLY_LABEL",
              "subType": null,
              "inputType": null,
              "variable": true,
              "variableId": "queryInfo^custRef",
              "fontName": "Axiforma-SemiBold",
              "fontSize": 14,
              "elementDisplayName": {
                "sw": "Customer Reference",
                "en": "Customer Reference"
              },
              "elementPlaceHolder": null,
              "defaultValue": null,
              "elementValues": null,
              "doesSubmit": false,
              "mandatory": false,
              "minCharacters": 0,
              "maxCharacters": 0,
              "regexRequired": false,
              "regex": null,
              "errorMessage": null,
              "popupRequried": false,
              "popupLayout": null
            },
            {
              "elementId": "area",
              "elementType": "READ_ONLY_LABEL",
              "subType": null,
              "inputType": null,
              "variable": true,
              "variableId": "queryInfo^area",
              "fontName": "Axiforma-SemiBold",
              "fontSize": 14,
              "elementDisplayName": {
                "sw": "Area",
                "en": "Area"
              },
              "elementPlaceHolder": null,
              "defaultValue": null,
              "elementValues": null,
              "doesSubmit": false,
              "mandatory": false,
              "minCharacters": 0,
              "maxCharacters": 0,
              "regexRequired": false,
              "regex": null,
              "errorMessage": null,
              "popupRequried": false,
              "popupLayout": null
            },
            {
              "elementId": "outstandingBal",
              "elementType": "READ_ONLY_LABEL",
              "subType": null,
              "inputType": null,
              "variable": true,
              "variableId": "queryInfo^outstandingBal",
              "fontName": "Axiforma-SemiBold",
              "fontSize": 14,
              "elementDisplayName": {
                "sw": "Outstanding Balance",
                "en": "Outstanding Balance"
              },
              "elementPlaceHolder": null,
              "defaultValue": null,
              "elementValues": null,
              "doesSubmit": false,
              "mandatory": false,
              "minCharacters": 0,
              "maxCharacters": 0,
              "regexRequired": false,
              "regex": null,
              "errorMessage": null,
              "popupRequried": false,
              "popupLayout": null
            }
          ]
        },
        {
          "layoutName": null,
          "layoutColumns": 1,
          "elements": [
            {
              "elementId": "transactionAmount",
              "elementType": "AMOUNT_TEXTFIELD",
              "subType": null,
              "inputType": "CONTACT",
              "variableId": null,
              "fontName": "Rubik-Medium",
              "fontSize": 30,
              "elementDisplayName": {
                "sw": "KIASI",
                "en": "Amount"
              },
              "elementPlaceHolder": {
                "sw": "KIASI",
                "en": "Amount"
              },
              "defaultValue": null,
              "elementValues": null,
              "doesSubmit": true,
              "mandatory": true,
			  "primaryData" :  true,
			  "primaryKeyType" :  null,
              "minCharacters": -1,
              "maxCharacters": -1,
              "regexRequired": true,
              "regex": "^\\d{1,12}$",
              "errorMessage": {
                "sw": "Kiasi Batili, Tafadhali chagua kiasi kikubwa zaidi ya 0",
                "en": "Invalid Amount, Please choose an amount greater than 0"
              },
              "popupRequried": false,
              "popupLayout": null,
              "variable": false
            },
            {
              "elementId": "transactionNarration",
              "elementType": "INPUT_TEXTFIELD",
              "subType": null,
              "inputType": "ALPHA_NUMERIC",
              "variableId": null,
              "fontName": "Axiforma-Medium",
              "rpKey": false,
              "fontSize": 15,
              "primaryData" :  true,
              "primaryKeyType" :  null,
              "elementDisplayName": {
                "sw": "Transaction Narration",
                "en": "Transaction Narration"
              },
              "elementPlaceHolder": {
                "sw": "Transaction Narration",
                "en": "Transaction Narration"
              },
              "defaultValue": null,
              "elementValues": null,
              "doesSubmit": true,
              "mandatory": true,
              "minCharacters": 1,
              "maxCharacters": 40,
              "regexRequired": false,
              "regex": null,
              "errorMessage": {
                "sw": "Tafadhali weka Simulizi ya Muamala",
                "en": "Please enter Transaction Narration"
              },
              "popupRequried": false,
              "popupLayout": null,
              "variable": false
            }
          ]
        }
      ],
      "showRecentPaymentsList": false,
      "showProceedToPaymentOption": true
    }
  ]
}
